EESchema Schematic File Version 4
EELAYER 30 0
EELAYER END
$Descr A4 11693 8268
encoding utf-8
Sheet 4 5
Title ""
Date ""
Rev ""
Comp ""
Comment1 ""
Comment2 ""
Comment3 ""
Comment4 ""
$EndDescr
Wire Wire Line
	5470 4450 5630 4450
$Comp
L 74xx:74HCT541 U5
U 1 1 5FB3030B
P 6480 1800
F 0 "U5" H 6790 2690 50  0000 C CNN
F 1 "74HCT541" H 6790 2590 50  0000 C CNN
F 2 "Package_DIP:DIP-20_W7.62mm" H 6480 1800 50  0001 C CNN
F 3 "http://www.ti.com/lit/gpn/sn74HCT541" H 6480 1800 50  0001 C CNN
	1    6480 1800
	1    0    0    -1  
$EndComp
$Comp
L Device:R R10
U 1 1 5FB99742
P 5890 3850
F 0 "R10" V 5890 3850 50  0000 C CNN
F 1 "1K" V 5810 3850 50  0000 C CNN
F 2 "Resistor_THT:R_Axial_DIN0204_L3.6mm_D1.6mm_P2.54mm_Vertical" V 5820 3850 50  0001 C CNN
F 3 "~" H 5890 3850 50  0001 C CNN
	1    5890 3850
	0    1    1    0   
$EndComp
$Comp
L Device:R R11
U 1 1 5FB9CA3A
P 5890 3950
F 0 "R11" V 5890 3950 50  0000 C CNN
F 1 "1K" V 5970 3950 50  0000 C CNN
F 2 "Resistor_THT:R_Axial_DIN0204_L3.6mm_D1.6mm_P2.54mm_Vertical" V 5820 3950 50  0001 C CNN
F 3 "~" H 5890 3950 50  0001 C CNN
	1    5890 3950
	0    1    1    0   
$EndComp
Wire Wire Line
	5470 3850 5740 3850
Wire Wire Line
	5470 3950 5740 3950
Wire Wire Line
	6040 3950 6120 3950
Wire Wire Line
	6120 3950 6120 3850
Wire Wire Line
	6120 3850 6040 3850
Wire Wire Line
	6120 3850 6120 3790
Connection ~ 6120 3850
$Comp
L power:+5V #PWR030
U 1 1 5FB9EBC9
P 6120 3790
F 0 "#PWR030" H 6120 3640 50  0001 C CNN
F 1 "+5V" H 6135 3963 50  0000 C CNN
F 2 "" H 6120 3790 50  0001 C CNN
F 3 "" H 6120 3790 50  0001 C CNN
	1    6120 3790
	1    0    0    -1  
$EndComp
$Comp
L Device:R R12
U 1 1 5FBA09F7
P 5890 4250
F 0 "R12" V 5890 4250 50  0000 C CNN
F 1 "1K" V 5810 4250 50  0000 C CNN
F 2 "Resistor_THT:R_Axial_DIN0204_L3.6mm_D1.6mm_P2.54mm_Vertical" V 5820 4250 50  0001 C CNN
F 3 "~" H 5890 4250 50  0001 C CNN
	1    5890 4250
	0    1    1    0   
$EndComp
$Comp
L Device:R R13
U 1 1 5FBA09FD
P 5890 4350
F 0 "R13" V 5890 4350 50  0000 C CNN
F 1 "1K" V 5970 4350 50  0000 C CNN
F 2 "Resistor_THT:R_Axial_DIN0204_L3.6mm_D1.6mm_P2.54mm_Vertical" V 5820 4350 50  0001 C CNN
F 3 "~" H 5890 4350 50  0001 C CNN
	1    5890 4350
	0    1    1    0   
$EndComp
Wire Wire Line
	5470 4250 5740 4250
Wire Wire Line
	5470 4350 5740 4350
Wire Wire Line
	6040 4350 6120 4350
Wire Wire Line
	6120 4350 6120 4250
Wire Wire Line
	6120 4250 6040 4250
Wire Wire Line
	6120 4250 6120 4190
Connection ~ 6120 4250
$Comp
L power:+5V #PWR031
U 1 1 5FBA0A0A
P 6120 4190
F 0 "#PWR031" H 6120 4040 50  0001 C CNN
F 1 "+5V" H 6135 4363 50  0000 C CNN
F 2 "" H 6120 4190 50  0001 C CNN
F 3 "" H 6120 4190 50  0001 C CNN
	1    6120 4190
	1    0    0    -1  
$EndComp
Wire Wire Line
	5470 4050 5530 4050
Wire Wire Line
	5470 4150 5530 4150
Wire Wire Line
	5530 4150 5530 4050
Connection ~ 5530 4050
Wire Wire Line
	5530 4050 5640 4050
$Comp
L power:GND #PWR025
U 1 1 5FBA1B63
P 5640 4050
F 0 "#PWR025" H 5640 3800 50  0001 C CNN
F 1 "GND" H 5640 4090 50  0000 C CNN
F 2 "" H 5640 4050 50  0001 C CNN
F 3 "" H 5640 4050 50  0001 C CNN
	1    5640 4050
	1    0    0    -1  
$EndComp
$Comp
L power:GND #PWR023
U 1 1 5FBA25C3
P 5630 4450
F 0 "#PWR023" H 5630 4200 50  0001 C CNN
F 1 "GND" H 5635 4277 50  0000 C CNN
F 2 "" H 5630 4450 50  0001 C CNN
F 3 "" H 5630 4450 50  0001 C CNN
	1    5630 4450
	1    0    0    -1  
$EndComp
$Comp
L power:GND #PWR027
U 1 1 5FBA2FF7
P 5670 3540
F 0 "#PWR027" H 5670 3290 50  0001 C CNN
F 1 "GND" H 5675 3367 50  0000 C CNN
F 2 "" H 5670 3540 50  0001 C CNN
F 3 "" H 5670 3540 50  0001 C CNN
	1    5670 3540
	1    0    0    -1  
$EndComp
Wire Wire Line
	5470 3750 5470 3490
Wire Wire Line
	5470 3490 5670 3490
Wire Wire Line
	5670 3490 5670 3540
$Comp
L 2020-10-10_19-49-16:CNY74-4H U4
U 1 1 5FBAA7AC
P 3660 5850
F 0 "U4" H 4560 6237 60  0000 C CNN
F 1 "CNY74-4H" H 4560 6131 60  0000 C CNN
F 2 "CNY74:CNY74-4H" H 4560 6090 60  0001 C CNN
F 3 "" H 3660 5850 60  0000 C CNN
	1    3660 5850
	1    0    0    -1  
$EndComp
Wire Wire Line
	5460 6550 5620 6550
$Comp
L Device:R R14
U 1 1 5FBAA7B3
P 5880 5950
F 0 "R14" V 5880 5950 50  0000 C CNN
F 1 "1K" V 5800 5950 50  0000 C CNN
F 2 "Resistor_THT:R_Axial_DIN0204_L3.6mm_D1.6mm_P2.54mm_Vertical" V 5810 5950 50  0001 C CNN
F 3 "~" H 5880 5950 50  0001 C CNN
	1    5880 5950
	0    1    1    0   
$EndComp
$Comp
L Device:R R15
U 1 1 5FBAA7B9
P 5880 6050
F 0 "R15" V 5880 6050 50  0000 C CNN
F 1 "1K" V 5960 6050 50  0000 C CNN
F 2 "Resistor_THT:R_Axial_DIN0204_L3.6mm_D1.6mm_P2.54mm_Vertical" V 5810 6050 50  0001 C CNN
F 3 "~" H 5880 6050 50  0001 C CNN
	1    5880 6050
	0    1    1    0   
$EndComp
Wire Wire Line
	5460 5950 5730 5950
Wire Wire Line
	5460 6050 5730 6050
Wire Wire Line
	6030 6050 6110 6050
Wire Wire Line
	6110 6050 6110 5950
Wire Wire Line
	6110 5950 6030 5950
Wire Wire Line
	6110 5950 6110 5890
Connection ~ 6110 5950
$Comp
L power:+5V #PWR032
U 1 1 5FBAA7C6
P 6110 5890
F 0 "#PWR032" H 6110 5740 50  0001 C CNN
F 1 "+5V" H 6125 6063 50  0000 C CNN
F 2 "" H 6110 5890 50  0001 C CNN
F 3 "" H 6110 5890 50  0001 C CNN
	1    6110 5890
	1    0    0    -1  
$EndComp
$Comp
L Device:R R16
U 1 1 5FBAA7CC
P 5880 6350
F 0 "R16" V 5880 6350 50  0000 C CNN
F 1 "1K" V 5800 6350 50  0000 C CNN
F 2 "Resistor_THT:R_Axial_DIN0204_L3.6mm_D1.6mm_P2.54mm_Vertical" V 5810 6350 50  0001 C CNN
F 3 "~" H 5880 6350 50  0001 C CNN
	1    5880 6350
	0    1    1    0   
$EndComp
$Comp
L Device:R R17
U 1 1 5FBAA7D2
P 5880 6450
F 0 "R17" V 5880 6450 50  0000 C CNN
F 1 "1K" V 5960 6450 50  0000 C CNN
F 2 "Resistor_THT:R_Axial_DIN0204_L3.6mm_D1.6mm_P2.54mm_Vertical" V 5810 6450 50  0001 C CNN
F 3 "~" H 5880 6450 50  0001 C CNN
	1    5880 6450
	0    1    1    0   
$EndComp
Wire Wire Line
	5460 6350 5730 6350
Wire Wire Line
	5460 6450 5730 6450
Wire Wire Line
	6030 6450 6110 6450
Wire Wire Line
	6110 6450 6110 6350
Wire Wire Line
	6110 6350 6030 6350
Wire Wire Line
	6110 6350 6110 6290
Connection ~ 6110 6350
$Comp
L power:+5V #PWR033
U 1 1 5FBAA7DF
P 6110 6290
F 0 "#PWR033" H 6110 6140 50  0001 C CNN
F 1 "+5V" H 6125 6463 50  0000 C CNN
F 2 "" H 6110 6290 50  0001 C CNN
F 3 "" H 6110 6290 50  0001 C CNN
	1    6110 6290
	1    0    0    -1  
$EndComp
Wire Wire Line
	5460 6150 5520 6150
Wire Wire Line
	5460 6250 5520 6250
Wire Wire Line
	5520 6250 5520 6150
Connection ~ 5520 6150
Wire Wire Line
	5520 6150 5630 6150
$Comp
L power:GND #PWR026
U 1 1 5FBAA7EA
P 5630 6150
F 0 "#PWR026" H 5630 5900 50  0001 C CNN
F 1 "GND" H 5630 6190 50  0000 C CNN
F 2 "" H 5630 6150 50  0001 C CNN
F 3 "" H 5630 6150 50  0001 C CNN
	1    5630 6150
	1    0    0    -1  
$EndComp
$Comp
L power:GND #PWR024
U 1 1 5FBAA7F0
P 5620 6550
F 0 "#PWR024" H 5620 6300 50  0001 C CNN
F 1 "GND" H 5625 6377 50  0000 C CNN
F 2 "" H 5620 6550 50  0001 C CNN
F 3 "" H 5620 6550 50  0001 C CNN
	1    5620 6550
	1    0    0    -1  
$EndComp
$Comp
L power:GND #PWR028
U 1 1 5FBAA7F6
P 5660 5640
F 0 "#PWR028" H 5660 5390 50  0001 C CNN
F 1 "GND" H 5665 5467 50  0000 C CNN
F 2 "" H 5660 5640 50  0001 C CNN
F 3 "" H 5660 5640 50  0001 C CNN
	1    5660 5640
	1    0    0    -1  
$EndComp
Wire Wire Line
	5460 5850 5460 5590
Wire Wire Line
	5460 5590 5660 5590
Wire Wire Line
	5660 5590 5660 5640
Text Label 5650 3850 2    50   ~ 0
OC1
Text Label 5650 3950 2    50   ~ 0
OC2
Text Label 5650 4250 2    50   ~ 0
OC3
Text Label 5650 4350 2    50   ~ 0
OC4
Text Label 5640 5950 2    50   ~ 0
OC5
Text Label 5640 6050 2    50   ~ 0
OC6
Text Label 5640 6350 2    50   ~ 0
OC7
Text Label 5640 6450 2    50   ~ 0
OC8
Wire Wire Line
	5820 2200 5820 2300
Wire Wire Line
	5820 2300 5980 2300
$Comp
L power:GND #PWR035
U 1 1 5FBB1F53
P 6480 2600
F 0 "#PWR035" H 6480 2350 50  0001 C CNN
F 1 "GND" H 6485 2427 50  0000 C CNN
F 2 "" H 6480 2600 50  0001 C CNN
F 3 "" H 6480 2600 50  0001 C CNN
	1    6480 2600
	1    0    0    -1  
$EndComp
$Comp
L power:+5V #PWR034
U 1 1 5FBB2D50
P 6480 1000
F 0 "#PWR034" H 6480 850 50  0001 C CNN
F 1 "+5V" H 6495 1173 50  0000 C CNN
F 2 "" H 6480 1000 50  0001 C CNN
F 3 "" H 6480 1000 50  0001 C CNN
	1    6480 1000
	1    0    0    -1  
$EndComp
$Comp
L Device:C C12
U 1 1 5FBB35D7
P 5510 2150
F 0 "C12" H 5625 2196 50  0000 L CNN
F 1 "100n" H 5625 2105 50  0000 L CNN
F 2 "Capacitor_THT:C_Disc_D5.1mm_W3.2mm_P5.00mm" H 5548 2000 50  0001 C CNN
F 3 "~" H 5510 2150 50  0001 C CNN
	1    5510 2150
	1    0    0    -1  
$EndComp
$Comp
L Device:C C11
U 1 1 5FBB4E6E
P 5120 2050
F 0 "C11" H 5235 2096 50  0000 L CNN
F 1 "100n" H 5235 2005 50  0000 L CNN
F 2 "Capacitor_THT:C_Disc_D5.1mm_W3.2mm_P5.00mm" H 5158 1900 50  0001 C CNN
F 3 "~" H 5120 2050 50  0001 C CNN
	1    5120 2050
	1    0    0    -1  
$EndComp
$Comp
L Device:C C10
U 1 1 5FBB667F
P 4720 1950
F 0 "C10" H 4835 1996 50  0000 L CNN
F 1 "100n" H 4835 1905 50  0000 L CNN
F 2 "Capacitor_THT:C_Disc_D5.1mm_W3.2mm_P5.00mm" H 4758 1800 50  0001 C CNN
F 3 "~" H 4720 1950 50  0001 C CNN
	1    4720 1950
	1    0    0    -1  
$EndComp
$Comp
L Device:C C9
U 1 1 5FBB6685
P 4320 1850
F 0 "C9" H 4435 1896 50  0000 L CNN
F 1 "100n" H 4435 1805 50  0000 L CNN
F 2 "Capacitor_THT:C_Disc_D5.1mm_W3.2mm_P5.00mm" H 4358 1700 50  0001 C CNN
F 3 "~" H 4320 1850 50  0001 C CNN
	1    4320 1850
	1    0    0    -1  
$EndComp
$Comp
L Device:C C8
U 1 1 5FBC82B0
P 3920 1760
F 0 "C8" H 4035 1806 50  0000 L CNN
F 1 "100n" H 4035 1715 50  0000 L CNN
F 2 "Capacitor_THT:C_Disc_D5.1mm_W3.2mm_P5.00mm" H 3958 1610 50  0001 C CNN
F 3 "~" H 3920 1760 50  0001 C CNN
	1    3920 1760
	1    0    0    -1  
$EndComp
$Comp
L Device:C C7
U 1 1 5FBC82B6
P 3530 1660
F 0 "C7" H 3645 1706 50  0000 L CNN
F 1 "100n" H 3645 1615 50  0000 L CNN
F 2 "Capacitor_THT:C_Disc_D5.1mm_W3.2mm_P5.00mm" H 3568 1510 50  0001 C CNN
F 3 "~" H 3530 1660 50  0001 C CNN
	1    3530 1660
	1    0    0    -1  
$EndComp
$Comp
L Device:C C6
U 1 1 5FBC82BC
P 3130 1560
F 0 "C6" H 3245 1606 50  0000 L CNN
F 1 "100n" H 3245 1515 50  0000 L CNN
F 2 "Capacitor_THT:C_Disc_D5.1mm_W3.2mm_P5.00mm" H 3168 1410 50  0001 C CNN
F 3 "~" H 3130 1560 50  0001 C CNN
	1    3130 1560
	1    0    0    -1  
$EndComp
$Comp
L Device:C C5
U 1 1 5FBC82C2
P 2730 1460
F 0 "C5" H 2845 1506 50  0000 L CNN
F 1 "100n" H 2845 1415 50  0000 L CNN
F 2 "Capacitor_THT:C_Disc_D5.1mm_W3.2mm_P5.00mm" H 2768 1310 50  0001 C CNN
F 3 "~" H 2730 1460 50  0001 C CNN
	1    2730 1460
	1    0    0    -1  
$EndComp
Wire Wire Line
	4320 1700 5980 1700
Wire Wire Line
	5980 1600 3920 1600
Wire Wire Line
	3920 1600 3920 1610
Wire Wire Line
	5980 1500 3530 1500
Wire Wire Line
	3530 1500 3530 1510
Wire Wire Line
	5980 1400 3130 1400
Wire Wire Line
	3130 1400 3130 1410
Wire Wire Line
	5980 1300 2730 1300
Wire Wire Line
	2730 1300 2730 1310
Wire Wire Line
	5980 1800 4720 1800
Wire Wire Line
	5120 1900 5980 1900
$Comp
L power:GND #PWR022
U 1 1 5FBD2B38
P 5510 2390
F 0 "#PWR022" H 5510 2140 50  0001 C CNN
F 1 "GND" H 5515 2217 50  0000 C CNN
F 2 "" H 5510 2390 50  0001 C CNN
F 3 "" H 5510 2390 50  0001 C CNN
	1    5510 2390
	1    0    0    -1  
$EndComp
$Comp
L power:GND #PWR021
U 1 1 5FBD3DD3
P 5120 2290
F 0 "#PWR021" H 5120 2040 50  0001 C CNN
F 1 "GND" H 5125 2117 50  0000 C CNN
F 2 "" H 5120 2290 50  0001 C CNN
F 3 "" H 5120 2290 50  0001 C CNN
	1    5120 2290
	1    0    0    -1  
$EndComp
$Comp
L power:GND #PWR020
U 1 1 5FBD5440
P 4720 2190
F 0 "#PWR020" H 4720 1940 50  0001 C CNN
F 1 "GND" H 4725 2017 50  0000 C CNN
F 2 "" H 4720 2190 50  0001 C CNN
F 3 "" H 4720 2190 50  0001 C CNN
	1    4720 2190
	1    0    0    -1  
$EndComp
Wire Wire Line
	4320 2000 4320 2090
$Comp
L power:GND #PWR019
U 1 1 5FBD640F
P 4320 2090
F 0 "#PWR019" H 4320 1840 50  0001 C CNN
F 1 "GND" H 4325 1917 50  0000 C CNN
F 2 "" H 4320 2090 50  0001 C CNN
F 3 "" H 4320 2090 50  0001 C CNN
	1    4320 2090
	1    0    0    -1  
$EndComp
Wire Wire Line
	3920 1910 3920 2000
$Comp
L power:GND #PWR018
U 1 1 5FBD7422
P 3920 2000
F 0 "#PWR018" H 3920 1750 50  0001 C CNN
F 1 "GND" H 3925 1827 50  0000 C CNN
F 2 "" H 3920 2000 50  0001 C CNN
F 3 "" H 3920 2000 50  0001 C CNN
	1    3920 2000
	1    0    0    -1  
$EndComp
Wire Wire Line
	3530 1810 3530 1900
$Comp
L power:GND #PWR017
U 1 1 5FBD84B9
P 3530 1900
F 0 "#PWR017" H 3530 1650 50  0001 C CNN
F 1 "GND" H 3535 1727 50  0000 C CNN
F 2 "" H 3530 1900 50  0001 C CNN
F 3 "" H 3530 1900 50  0001 C CNN
	1    3530 1900
	1    0    0    -1  
$EndComp
Wire Wire Line
	3130 1710 3130 1800
$Comp
L power:GND #PWR016
U 1 1 5FBD9449
P 3130 1800
F 0 "#PWR016" H 3130 1550 50  0001 C CNN
F 1 "GND" H 3135 1627 50  0000 C CNN
F 2 "" H 3130 1800 50  0001 C CNN
F 3 "" H 3130 1800 50  0001 C CNN
	1    3130 1800
	1    0    0    -1  
$EndComp
Wire Wire Line
	2730 1610 2730 1700
$Comp
L power:GND #PWR015
U 1 1 5FBDA8B7
P 2730 1700
F 0 "#PWR015" H 2730 1450 50  0001 C CNN
F 1 "GND" H 2735 1527 50  0000 C CNN
F 2 "" H 2730 1700 50  0001 C CNN
F 3 "" H 2730 1700 50  0001 C CNN
	1    2730 1700
	1    0    0    -1  
$EndComp
Text Label 5910 1300 2    50   ~ 0
OC1
Text Label 5910 1400 2    50   ~ 0
OC2
Text Label 5910 1500 2    50   ~ 0
OC3
Text Label 5910 1600 2    50   ~ 0
OC4
Text Label 5910 1700 2    50   ~ 0
OC5
Text Label 5910 1800 2    50   ~ 0
OC6
Text Label 5910 1900 2    50   ~ 0
OC7
Text Label 5910 2000 2    50   ~ 0
OC8
$Comp
L Device:R R18
U 1 1 5FC15B06
P 7210 1300
F 0 "R18" V 7210 1290 50  0000 C CNN
F 1 "1K" V 7150 1130 50  0000 C CNN
F 2 "Resistor_THT:R_Axial_DIN0204_L3.6mm_D1.6mm_P2.54mm_Vertical" V 7140 1300 50  0001 C CNN
F 3 "~" H 7210 1300 50  0001 C CNN
	1    7210 1300
	0    1    1    0   
$EndComp
$Comp
L Device:R R19
U 1 1 5FC170B0
P 7210 1400
F 0 "R19" V 7210 1390 50  0000 C CNN
F 1 "1K" V 7170 1230 50  0000 C CNN
F 2 "Resistor_THT:R_Axial_DIN0204_L3.6mm_D1.6mm_P2.54mm_Vertical" V 7140 1400 50  0001 C CNN
F 3 "~" H 7210 1400 50  0001 C CNN
	1    7210 1400
	0    1    1    0   
$EndComp
$Comp
L Device:R R20
U 1 1 5FC2ABA6
P 7210 1500
F 0 "R20" V 7210 1490 50  0000 C CNN
F 1 "1K" V 7170 1330 50  0000 C CNN
F 2 "Resistor_THT:R_Axial_DIN0204_L3.6mm_D1.6mm_P2.54mm_Vertical" V 7140 1500 50  0001 C CNN
F 3 "~" H 7210 1500 50  0001 C CNN
	1    7210 1500
	0    1    1    0   
$EndComp
$Comp
L Device:R R21
U 1 1 5FC2ABAC
P 7210 1600
F 0 "R21" V 7210 1590 50  0000 C CNN
F 1 "1K" V 7170 1430 50  0000 C CNN
F 2 "Resistor_THT:R_Axial_DIN0204_L3.6mm_D1.6mm_P2.54mm_Vertical" V 7140 1600 50  0001 C CNN
F 3 "~" H 7210 1600 50  0001 C CNN
	1    7210 1600
	0    1    1    0   
$EndComp
$Comp
L Device:R R22
U 1 1 5FC2DAF1
P 7210 1700
F 0 "R22" V 7210 1690 50  0000 C CNN
F 1 "1K" V 7160 1530 50  0000 C CNN
F 2 "Resistor_THT:R_Axial_DIN0204_L3.6mm_D1.6mm_P2.54mm_Vertical" V 7140 1700 50  0001 C CNN
F 3 "~" H 7210 1700 50  0001 C CNN
	1    7210 1700
	0    1    1    0   
$EndComp
$Comp
L Device:R R23
U 1 1 5FC2DAF7
P 7210 1800
F 0 "R23" V 7210 1790 50  0000 C CNN
F 1 "1K" V 7160 1630 50  0000 C CNN
F 2 "Resistor_THT:R_Axial_DIN0204_L3.6mm_D1.6mm_P2.54mm_Vertical" V 7140 1800 50  0001 C CNN
F 3 "~" H 7210 1800 50  0001 C CNN
	1    7210 1800
	0    1    1    0   
$EndComp
$Comp
L Device:R R24
U 1 1 5FC2DAFD
P 7210 1900
F 0 "R24" V 7210 1890 50  0000 C CNN
F 1 "1K" V 7160 1730 50  0000 C CNN
F 2 "Resistor_THT:R_Axial_DIN0204_L3.6mm_D1.6mm_P2.54mm_Vertical" V 7140 1900 50  0001 C CNN
F 3 "~" H 7210 1900 50  0001 C CNN
	1    7210 1900
	0    1    1    0   
$EndComp
$Comp
L Device:R R25
U 1 1 5FC2DB03
P 7210 2000
F 0 "R25" V 7210 1990 50  0000 C CNN
F 1 "1K" V 7170 1830 50  0000 C CNN
F 2 "Resistor_THT:R_Axial_DIN0204_L3.6mm_D1.6mm_P2.54mm_Vertical" V 7140 2000 50  0001 C CNN
F 3 "~" H 7210 2000 50  0001 C CNN
	1    7210 2000
	0    1    1    0   
$EndComp
Wire Wire Line
	6980 1300 7060 1300
Wire Wire Line
	6980 1400 7060 1400
Wire Wire Line
	6980 1500 7060 1500
Wire Wire Line
	6980 1600 7060 1600
Wire Wire Line
	6980 1700 7060 1700
Wire Wire Line
	6980 1800 7060 1800
Wire Wire Line
	6980 1900 7060 1900
Wire Wire Line
	6980 2000 7060 2000
Wire Wire Line
	7360 1300 7640 1300
Wire Wire Line
	7360 1400 7640 1400
Wire Wire Line
	7360 1500 7640 1500
Wire Wire Line
	7360 1600 7640 1600
Wire Wire Line
	7360 1700 7640 1700
Wire Wire Line
	7360 1800 7640 1800
Wire Wire Line
	7360 1900 7640 1900
Wire Wire Line
	7360 2000 7640 2000
Entry Wire Line
	7640 1300 7740 1400
Entry Wire Line
	7640 1400 7740 1500
Entry Wire Line
	7640 1500 7740 1600
Entry Wire Line
	7640 1600 7740 1700
Entry Wire Line
	7640 1700 7740 1800
Entry Wire Line
	7640 1800 7740 1900
Entry Wire Line
	7640 1900 7740 2000
Entry Wire Line
	7640 2000 7740 2100
Wire Bus Line
	7740 2260 8180 2260
Text Label 7560 1300 2    50   ~ 0
IN1
Text Label 7560 1400 2    50   ~ 0
IN2
Text Label 7560 1500 2    50   ~ 0
IN3
Text Label 7560 1600 2    50   ~ 0
IN4
Text Label 7560 1700 2    50   ~ 0
IN5
Text Label 7560 1800 2    50   ~ 0
IN6
Text Label 7560 1900 2    50   ~ 0
IN7
Text Label 7560 2000 2    50   ~ 0
IN8
Text HLabel 8180 2260 2    50   Input ~ 0
IN[1..8]
Wire Wire Line
	5820 2200 5980 2200
Connection ~ 5820 2300
Wire Wire Line
	5510 2390 5510 2300
Wire Wire Line
	5120 2200 5120 2290
Wire Wire Line
	4720 2100 4720 2190
Wire Wire Line
	5510 2000 5980 2000
$Comp
L power:GND #PWR029
U 1 1 5FC92A65
P 5820 2690
F 0 "#PWR029" H 5820 2440 50  0001 C CNN
F 1 "GND" H 5825 2517 50  0000 C CNN
F 2 "" H 5820 2690 50  0001 C CNN
F 3 "" H 5820 2690 50  0001 C CNN
	1    5820 2690
	1    0    0    -1  
$EndComp
Wire Wire Line
	5820 2300 5820 2690
$Comp
L Device:LED D15
U 1 1 5FCE8F41
P 3530 3440
F 0 "D15" V 3569 3323 50  0000 R CNN
F 1 "LED" V 3478 3323 50  0000 R CNN
F 2 "LED_THT:LED_D5.0mm" H 3530 3440 50  0001 C CNN
F 3 "~" H 3530 3440 50  0001 C CNN
	1    3530 3440
	0    -1   -1   0   
$EndComp
$Comp
L Device:R R32
U 1 1 5FCEB3CB
P 3530 3030
F 0 "R32" H 3600 3076 50  0000 L CNN
F 1 "2K5" H 3600 2985 50  0000 L CNN
F 2 "Resistor_THT:R_Axial_DIN0204_L3.6mm_D1.6mm_P2.54mm_Vertical" V 3460 3030 50  0001 C CNN
F 3 "~" H 3530 3030 50  0001 C CNN
	1    3530 3030
	1    0    0    -1  
$EndComp
Wire Wire Line
	3530 3180 3530 3290
Wire Wire Line
	3530 3590 3530 3750
Wire Wire Line
	3530 3750 3670 3750
Wire Wire Line
	3530 2880 3530 2770
$Comp
L power:+24V #PWR0111
U 1 1 5FCFA9AC
P 3530 2770
F 0 "#PWR0111" H 3530 2620 50  0001 C CNN
F 1 "+24V" H 3545 2943 50  0000 C CNN
F 2 "" H 3530 2770 50  0001 C CNN
F 3 "" H 3530 2770 50  0001 C CNN
	1    3530 2770
	1    0    0    -1  
$EndComp
$Comp
L Device:LED D13
U 1 1 5FCFF911
P 3050 3440
F 0 "D13" V 3089 3323 50  0000 R CNN
F 1 "LED" V 2998 3323 50  0000 R CNN
F 2 "LED_THT:LED_D5.0mm" H 3050 3440 50  0001 C CNN
F 3 "~" H 3050 3440 50  0001 C CNN
	1    3050 3440
	0    -1   -1   0   
$EndComp
$Comp
L Device:R R30
U 1 1 5FCFF917
P 3050 3030
F 0 "R30" H 3120 3076 50  0000 L CNN
F 1 "2K5" H 3120 2985 50  0000 L CNN
F 2 "Resistor_THT:R_Axial_DIN0204_L3.6mm_D1.6mm_P2.54mm_Vertical" V 2980 3030 50  0001 C CNN
F 3 "~" H 3050 3030 50  0001 C CNN
	1    3050 3030
	1    0    0    -1  
$EndComp
Wire Wire Line
	3050 3180 3050 3290
Wire Wire Line
	3050 2880 3050 2770
$Comp
L power:+24V #PWR0112
U 1 1 5FCFF91F
P 3050 2770
F 0 "#PWR0112" H 3050 2620 50  0001 C CNN
F 1 "+24V" H 3065 2943 50  0000 C CNN
F 2 "" H 3050 2770 50  0001 C CNN
F 3 "" H 3050 2770 50  0001 C CNN
	1    3050 2770
	1    0    0    -1  
$EndComp
$Comp
L Device:LED D11
U 1 1 5FD03136
P 2730 3440
F 0 "D11" V 2769 3323 50  0000 R CNN
F 1 "LED" V 2678 3323 50  0000 R CNN
F 2 "LED_THT:LED_D5.0mm" H 2730 3440 50  0001 C CNN
F 3 "~" H 2730 3440 50  0001 C CNN
	1    2730 3440
	0    -1   -1   0   
$EndComp
$Comp
L Device:R R28
U 1 1 5FD0313C
P 2730 3030
F 0 "R28" H 2800 3076 50  0000 L CNN
F 1 "2K5" H 2800 2985 50  0000 L CNN
F 2 "Resistor_THT:R_Axial_DIN0204_L3.6mm_D1.6mm_P2.54mm_Vertical" V 2660 3030 50  0001 C CNN
F 3 "~" H 2730 3030 50  0001 C CNN
	1    2730 3030
	1    0    0    -1  
$EndComp
Wire Wire Line
	2730 3180 2730 3290
Wire Wire Line
	2730 2880 2730 2770
$Comp
L power:+24V #PWR0113
U 1 1 5FD03144
P 2730 2770
F 0 "#PWR0113" H 2730 2620 50  0001 C CNN
F 1 "+24V" H 2745 2943 50  0000 C CNN
F 2 "" H 2730 2770 50  0001 C CNN
F 3 "" H 2730 2770 50  0001 C CNN
	1    2730 2770
	1    0    0    -1  
$EndComp
$Comp
L Device:LED D9
U 1 1 5FD073D4
P 2410 3440
F 0 "D9" V 2449 3323 50  0000 R CNN
F 1 "LED" V 2358 3323 50  0000 R CNN
F 2 "LED_THT:LED_D5.0mm" H 2410 3440 50  0001 C CNN
F 3 "~" H 2410 3440 50  0001 C CNN
	1    2410 3440
	0    -1   -1   0   
$EndComp
$Comp
L Device:R R26
U 1 1 5FD073DA
P 2410 3030
F 0 "R26" H 2480 3076 50  0000 L CNN
F 1 "2K5" H 2480 2985 50  0000 L CNN
F 2 "Resistor_THT:R_Axial_DIN0204_L3.6mm_D1.6mm_P2.54mm_Vertical" V 2340 3030 50  0001 C CNN
F 3 "~" H 2410 3030 50  0001 C CNN
	1    2410 3030
	1    0    0    -1  
$EndComp
Wire Wire Line
	2410 3180 2410 3290
Wire Wire Line
	2410 2880 2410 2770
$Comp
L power:+24V #PWR0114
U 1 1 5FD073E2
P 2410 2770
F 0 "#PWR0114" H 2410 2620 50  0001 C CNN
F 1 "+24V" H 2425 2943 50  0000 C CNN
F 2 "" H 2410 2770 50  0001 C CNN
F 3 "" H 2410 2770 50  0001 C CNN
	1    2410 2770
	1    0    0    -1  
$EndComp
Wire Wire Line
	3050 3590 3050 4050
Wire Wire Line
	3050 4050 3670 4050
Wire Wire Line
	2730 3590 2730 4150
Wire Wire Line
	2730 4150 3670 4150
Wire Wire Line
	2410 3590 2410 4450
Wire Wire Line
	2410 4450 3670 4450
$Comp
L Device:LED D16
U 1 1 5FD3E8CA
P 3520 5540
F 0 "D16" V 3559 5423 50  0000 R CNN
F 1 "LED" V 3468 5423 50  0000 R CNN
F 2 "LED_THT:LED_D5.0mm" H 3520 5540 50  0001 C CNN
F 3 "~" H 3520 5540 50  0001 C CNN
	1    3520 5540
	0    -1   -1   0   
$EndComp
$Comp
L Device:R R33
U 1 1 5FD3E8D0
P 3520 5130
F 0 "R33" H 3590 5176 50  0000 L CNN
F 1 "2K5" H 3590 5085 50  0000 L CNN
F 2 "Resistor_THT:R_Axial_DIN0204_L3.6mm_D1.6mm_P2.54mm_Vertical" V 3450 5130 50  0001 C CNN
F 3 "~" H 3520 5130 50  0001 C CNN
	1    3520 5130
	1    0    0    -1  
$EndComp
Wire Wire Line
	3520 5280 3520 5390
Wire Wire Line
	3520 5690 3520 5850
Wire Wire Line
	3520 5850 3660 5850
Wire Wire Line
	3520 4980 3520 4870
$Comp
L power:+24V #PWR0117
U 1 1 5FD3E8E2
P 3520 4870
F 0 "#PWR0117" H 3520 4720 50  0001 C CNN
F 1 "+24V" H 3535 5043 50  0000 C CNN
F 2 "" H 3520 4870 50  0001 C CNN
F 3 "" H 3520 4870 50  0001 C CNN
	1    3520 4870
	1    0    0    -1  
$EndComp
$Comp
L Device:LED D14
U 1 1 5FD3E8E8
P 3040 5540
F 0 "D14" V 3079 5423 50  0000 R CNN
F 1 "LED" V 2988 5423 50  0000 R CNN
F 2 "LED_THT:LED_D5.0mm" H 3040 5540 50  0001 C CNN
F 3 "~" H 3040 5540 50  0001 C CNN
	1    3040 5540
	0    -1   -1   0   
$EndComp
$Comp
L Device:R R31
U 1 1 5FD3E8EE
P 3040 5130
F 0 "R31" H 3110 5176 50  0000 L CNN
F 1 "2K5" H 3110 5085 50  0000 L CNN
F 2 "Resistor_THT:R_Axial_DIN0204_L3.6mm_D1.6mm_P2.54mm_Vertical" V 2970 5130 50  0001 C CNN
F 3 "~" H 3040 5130 50  0001 C CNN
	1    3040 5130
	1    0    0    -1  
$EndComp
Wire Wire Line
	3040 5280 3040 5390
Wire Wire Line
	3040 4980 3040 4870
$Comp
L power:+24V #PWR0118
U 1 1 5FD3E8F6
P 3040 4870
F 0 "#PWR0118" H 3040 4720 50  0001 C CNN
F 1 "+24V" H 3055 5043 50  0000 C CNN
F 2 "" H 3040 4870 50  0001 C CNN
F 3 "" H 3040 4870 50  0001 C CNN
	1    3040 4870
	1    0    0    -1  
$EndComp
$Comp
L Device:LED D12
U 1 1 5FD3E8FC
P 2720 5540
F 0 "D12" V 2759 5423 50  0000 R CNN
F 1 "LED" V 2668 5423 50  0000 R CNN
F 2 "LED_THT:LED_D5.0mm" H 2720 5540 50  0001 C CNN
F 3 "~" H 2720 5540 50  0001 C CNN
	1    2720 5540
	0    -1   -1   0   
$EndComp
$Comp
L Device:R R29
U 1 1 5FD3E902
P 2720 5130
F 0 "R29" H 2790 5176 50  0000 L CNN
F 1 "2K5" H 2790 5085 50  0000 L CNN
F 2 "Resistor_THT:R_Axial_DIN0204_L3.6mm_D1.6mm_P2.54mm_Vertical" V 2650 5130 50  0001 C CNN
F 3 "~" H 2720 5130 50  0001 C CNN
	1    2720 5130
	1    0    0    -1  
$EndComp
Wire Wire Line
	2720 5280 2720 5390
Wire Wire Line
	2720 4980 2720 4870
$Comp
L power:+24V #PWR0119
U 1 1 5FD3E90A
P 2720 4870
F 0 "#PWR0119" H 2720 4720 50  0001 C CNN
F 1 "+24V" H 2735 5043 50  0000 C CNN
F 2 "" H 2720 4870 50  0001 C CNN
F 3 "" H 2720 4870 50  0001 C CNN
	1    2720 4870
	1    0    0    -1  
$EndComp
$Comp
L Device:LED D10
U 1 1 5FD3E910
P 2400 5540
F 0 "D10" V 2439 5423 50  0000 R CNN
F 1 "LED" V 2348 5423 50  0000 R CNN
F 2 "LED_THT:LED_D5.0mm" H 2400 5540 50  0001 C CNN
F 3 "~" H 2400 5540 50  0001 C CNN
	1    2400 5540
	0    -1   -1   0   
$EndComp
$Comp
L Device:R R27
U 1 1 5FD3E916
P 2400 5130
F 0 "R27" H 2470 5176 50  0000 L CNN
F 1 "2K5" H 2470 5085 50  0000 L CNN
F 2 "Resistor_THT:R_Axial_DIN0204_L3.6mm_D1.6mm_P2.54mm_Vertical" V 2330 5130 50  0001 C CNN
F 3 "~" H 2400 5130 50  0001 C CNN
	1    2400 5130
	1    0    0    -1  
$EndComp
Wire Wire Line
	2400 5280 2400 5390
Wire Wire Line
	2400 4980 2400 4870
$Comp
L power:+24V #PWR0120
U 1 1 5FD3E91E
P 2400 4870
F 0 "#PWR0120" H 2400 4720 50  0001 C CNN
F 1 "+24V" H 2415 5043 50  0000 C CNN
F 2 "" H 2400 4870 50  0001 C CNN
F 3 "" H 2400 4870 50  0001 C CNN
	1    2400 4870
	1    0    0    -1  
$EndComp
Wire Wire Line
	3040 5690 3040 6150
Wire Wire Line
	3040 6150 3660 6150
Wire Wire Line
	2720 5690 2720 6250
Wire Wire Line
	2720 6250 3660 6250
Wire Wire Line
	2400 5690 2400 6550
Wire Wire Line
	2400 6550 3660 6550
Text Label 3530 3850 0    50   ~ 0
LD1
Text Label 3530 3950 0    50   ~ 0
LD2
Text Label 3530 4250 0    50   ~ 0
LD3
Text Label 3530 4350 0    50   ~ 0
LD4
Text Label 3520 5950 0    50   ~ 0
LD5
Text Label 3520 6050 0    50   ~ 0
LD6
Text Label 3520 6350 0    50   ~ 0
LD7
Text Label 3520 6450 0    50   ~ 0
LD8
$Comp
L Connector:Screw_Terminal_01x03 IN1
U 1 1 5FE37B98
P 1260 1600
F 0 "IN1" H 1340 1642 50  0000 L CNN
F 1 "Screw_Terminal_01x03" H 1340 1551 50  0000 L CNN
F 2 "TerminalBlock_Phoenix:TerminalBlock_Phoenix_MKDS-3-3-5.08_1x03_P5.08mm_Horizontal" H 1260 1600 50  0001 C CNN
F 3 "~" H 1260 1600 50  0001 C CNN
	1    1260 1600
	1    0    0    -1  
$EndComp
Wire Wire Line
	1060 1500 850  1500
Wire Wire Line
	1060 1600 850  1600
Wire Wire Line
	1060 1700 850  1700
$Comp
L power:+24V #PWR0121
U 1 1 5FE4AED3
P 850 1500
F 0 "#PWR0121" H 850 1350 50  0001 C CNN
F 1 "+24V" H 865 1673 50  0000 C CNN
F 2 "" H 850 1500 50  0001 C CNN
F 3 "" H 850 1500 50  0001 C CNN
	1    850  1500
	1    0    0    -1  
$EndComp
$Comp
L power:GNDA #PWR0122
U 1 1 5FE4BAE4
P 850 1700
F 0 "#PWR0122" H 850 1450 50  0001 C CNN
F 1 "GNDA" H 855 1527 50  0000 C CNN
F 2 "" H 850 1700 50  0001 C CNN
F 3 "" H 850 1700 50  0001 C CNN
	1    850  1700
	1    0    0    -1  
$EndComp
Text Label 850  1600 0    50   ~ 0
LD1
$Comp
L Connector:Screw_Terminal_01x03 IN2
U 1 1 5FE4DE62
P 1260 2280
F 0 "IN2" H 1340 2322 50  0000 L CNN
F 1 "Screw_Terminal_01x03" H 1340 2231 50  0000 L CNN
F 2 "TerminalBlock_Phoenix:TerminalBlock_Phoenix_MKDS-3-3-5.08_1x03_P5.08mm_Horizontal" H 1260 2280 50  0001 C CNN
F 3 "~" H 1260 2280 50  0001 C CNN
	1    1260 2280
	1    0    0    -1  
$EndComp
Wire Wire Line
	1060 2180 850  2180
Wire Wire Line
	1060 2280 850  2280
Wire Wire Line
	1060 2380 850  2380
$Comp
L power:+24V #PWR0123
U 1 1 5FE4DE6B
P 850 2180
F 0 "#PWR0123" H 850 2030 50  0001 C CNN
F 1 "+24V" H 865 2353 50  0000 C CNN
F 2 "" H 850 2180 50  0001 C CNN
F 3 "" H 850 2180 50  0001 C CNN
	1    850  2180
	1    0    0    -1  
$EndComp
$Comp
L power:GNDA #PWR0124
U 1 1 5FE4DE71
P 850 2380
F 0 "#PWR0124" H 850 2130 50  0001 C CNN
F 1 "GNDA" H 855 2207 50  0000 C CNN
F 2 "" H 850 2380 50  0001 C CNN
F 3 "" H 850 2380 50  0001 C CNN
	1    850  2380
	1    0    0    -1  
$EndComp
Text Label 850  2280 0    50   ~ 0
LD2
$Comp
L Connector:Screw_Terminal_01x03 IN3
U 1 1 5FE545EA
P 1250 2990
F 0 "IN3" H 1330 3032 50  0000 L CNN
F 1 "Screw_Terminal_01x03" H 1330 2941 50  0000 L CNN
F 2 "TerminalBlock_Phoenix:TerminalBlock_Phoenix_MKDS-3-3-5.08_1x03_P5.08mm_Horizontal" H 1250 2990 50  0001 C CNN
F 3 "~" H 1250 2990 50  0001 C CNN
	1    1250 2990
	1    0    0    -1  
$EndComp
Wire Wire Line
	1050 2890 840  2890
Wire Wire Line
	1050 2990 840  2990
Wire Wire Line
	1050 3090 840  3090
$Comp
L power:+24V #PWR0125
U 1 1 5FE545F3
P 840 2890
F 0 "#PWR0125" H 840 2740 50  0001 C CNN
F 1 "+24V" H 855 3063 50  0000 C CNN
F 2 "" H 840 2890 50  0001 C CNN
F 3 "" H 840 2890 50  0001 C CNN
	1    840  2890
	1    0    0    -1  
$EndComp
$Comp
L power:GNDA #PWR0126
U 1 1 5FE545F9
P 840 3090
F 0 "#PWR0126" H 840 2840 50  0001 C CNN
F 1 "GNDA" H 845 2917 50  0000 C CNN
F 2 "" H 840 3090 50  0001 C CNN
F 3 "" H 840 3090 50  0001 C CNN
	1    840  3090
	1    0    0    -1  
$EndComp
Text Label 840  2990 0    50   ~ 0
LD3
$Comp
L Connector:Screw_Terminal_01x03 IN5
U 1 1 5FE5B9C5
P 1230 4390
F 0 "IN5" H 1310 4432 50  0000 L CNN
F 1 "Screw_Terminal_01x03" H 1310 4341 50  0000 L CNN
F 2 "TerminalBlock_Phoenix:TerminalBlock_Phoenix_MKDS-3-3-5.08_1x03_P5.08mm_Horizontal" H 1230 4390 50  0001 C CNN
F 3 "~" H 1230 4390 50  0001 C CNN
	1    1230 4390
	1    0    0    -1  
$EndComp
Wire Wire Line
	1030 4290 820  4290
Wire Wire Line
	1030 4390 820  4390
Wire Wire Line
	1030 4490 820  4490
$Comp
L power:+24V #PWR0127
U 1 1 5FE5B9CE
P 820 4290
F 0 "#PWR0127" H 820 4140 50  0001 C CNN
F 1 "+24V" H 835 4463 50  0000 C CNN
F 2 "" H 820 4290 50  0001 C CNN
F 3 "" H 820 4290 50  0001 C CNN
	1    820  4290
	1    0    0    -1  
$EndComp
$Comp
L power:GNDA #PWR0128
U 1 1 5FE5B9D4
P 820 4490
F 0 "#PWR0128" H 820 4240 50  0001 C CNN
F 1 "GNDA" H 825 4317 50  0000 C CNN
F 2 "" H 820 4490 50  0001 C CNN
F 3 "" H 820 4490 50  0001 C CNN
	1    820  4490
	1    0    0    -1  
$EndComp
$Comp
L Connector:Screw_Terminal_01x03 IN4
U 1 1 5FE65F5C
P 1250 3700
F 0 "IN4" H 1330 3742 50  0000 L CNN
F 1 "Screw_Terminal_01x03" H 1330 3651 50  0000 L CNN
F 2 "TerminalBlock_Phoenix:TerminalBlock_Phoenix_MKDS-3-3-5.08_1x03_P5.08mm_Horizontal" H 1250 3700 50  0001 C CNN
F 3 "~" H 1250 3700 50  0001 C CNN
	1    1250 3700
	1    0    0    -1  
$EndComp
Wire Wire Line
	1050 3600 840  3600
Wire Wire Line
	1050 3700 840  3700
Wire Wire Line
	1050 3800 840  3800
$Comp
L power:+24V #PWR0129
U 1 1 5FE65F65
P 840 3600
F 0 "#PWR0129" H 840 3450 50  0001 C CNN
F 1 "+24V" H 855 3773 50  0000 C CNN
F 2 "" H 840 3600 50  0001 C CNN
F 3 "" H 840 3600 50  0001 C CNN
	1    840  3600
	1    0    0    -1  
$EndComp
$Comp
L power:GNDA #PWR0130
U 1 1 5FE65F6B
P 840 3800
F 0 "#PWR0130" H 840 3550 50  0001 C CNN
F 1 "GNDA" H 845 3627 50  0000 C CNN
F 2 "" H 840 3800 50  0001 C CNN
F 3 "" H 840 3800 50  0001 C CNN
	1    840  3800
	1    0    0    -1  
$EndComp
Text Label 840  3700 0    50   ~ 0
LD4
$Comp
L Connector:Screw_Terminal_01x03 IN6
U 1 1 5FE65F72
P 1230 5110
F 0 "IN6" H 1310 5152 50  0000 L CNN
F 1 "Screw_Terminal_01x03" H 1310 5061 50  0000 L CNN
F 2 "TerminalBlock_Phoenix:TerminalBlock_Phoenix_MKDS-3-3-5.08_1x03_P5.08mm_Horizontal" H 1230 5110 50  0001 C CNN
F 3 "~" H 1230 5110 50  0001 C CNN
	1    1230 5110
	1    0    0    -1  
$EndComp
Wire Wire Line
	1030 5010 820  5010
Wire Wire Line
	1030 5110 820  5110
Wire Wire Line
	1030 5210 820  5210
$Comp
L power:+24V #PWR0131
U 1 1 5FE65F7B
P 820 5010
F 0 "#PWR0131" H 820 4860 50  0001 C CNN
F 1 "+24V" H 835 5183 50  0000 C CNN
F 2 "" H 820 5010 50  0001 C CNN
F 3 "" H 820 5010 50  0001 C CNN
	1    820  5010
	1    0    0    -1  
$EndComp
$Comp
L power:GNDA #PWR0132
U 1 1 5FE65F81
P 820 5210
F 0 "#PWR0132" H 820 4960 50  0001 C CNN
F 1 "GNDA" H 825 5037 50  0000 C CNN
F 2 "" H 820 5210 50  0001 C CNN
F 3 "" H 820 5210 50  0001 C CNN
	1    820  5210
	1    0    0    -1  
$EndComp
Text Label 820  5110 0    50   ~ 0
LD6
$Comp
L Connector:Screw_Terminal_01x03 IN7
U 1 1 5FE65F88
P 1230 5800
F 0 "IN7" H 1310 5842 50  0000 L CNN
F 1 "Screw_Terminal_01x03" H 1310 5751 50  0000 L CNN
F 2 "TerminalBlock_Phoenix:TerminalBlock_Phoenix_MKDS-3-3-5.08_1x03_P5.08mm_Horizontal" H 1230 5800 50  0001 C CNN
F 3 "~" H 1230 5800 50  0001 C CNN
	1    1230 5800
	1    0    0    -1  
$EndComp
Wire Wire Line
	1030 5700 820  5700
Wire Wire Line
	1030 5800 820  5800
Wire Wire Line
	1030 5900 820  5900
$Comp
L power:+24V #PWR0133
U 1 1 5FE65F91
P 820 5700
F 0 "#PWR0133" H 820 5550 50  0001 C CNN
F 1 "+24V" H 835 5873 50  0000 C CNN
F 2 "" H 820 5700 50  0001 C CNN
F 3 "" H 820 5700 50  0001 C CNN
	1    820  5700
	1    0    0    -1  
$EndComp
$Comp
L power:GNDA #PWR0134
U 1 1 5FE65F97
P 820 5900
F 0 "#PWR0134" H 820 5650 50  0001 C CNN
F 1 "GNDA" H 825 5727 50  0000 C CNN
F 2 "" H 820 5900 50  0001 C CNN
F 3 "" H 820 5900 50  0001 C CNN
	1    820  5900
	1    0    0    -1  
$EndComp
Text Label 820  5800 0    50   ~ 0
LD7
$Comp
L Connector:Screw_Terminal_01x03 IN8
U 1 1 5FE65F9E
P 1220 6500
F 0 "IN8" H 1300 6542 50  0000 L CNN
F 1 "Screw_Terminal_01x03" H 1300 6451 50  0000 L CNN
F 2 "TerminalBlock_Phoenix:TerminalBlock_Phoenix_MKDS-3-3-5.08_1x03_P5.08mm_Horizontal" H 1220 6500 50  0001 C CNN
F 3 "~" H 1220 6500 50  0001 C CNN
	1    1220 6500
	1    0    0    -1  
$EndComp
Wire Wire Line
	1020 6400 810  6400
Wire Wire Line
	1020 6500 810  6500
Wire Wire Line
	1020 6600 810  6600
$Comp
L power:+24V #PWR0135
U 1 1 5FE65FA7
P 810 6400
F 0 "#PWR0135" H 810 6250 50  0001 C CNN
F 1 "+24V" H 825 6573 50  0000 C CNN
F 2 "" H 810 6400 50  0001 C CNN
F 3 "" H 810 6400 50  0001 C CNN
	1    810  6400
	1    0    0    -1  
$EndComp
$Comp
L power:GNDA #PWR0136
U 1 1 5FE65FAD
P 810 6600
F 0 "#PWR0136" H 810 6350 50  0001 C CNN
F 1 "GNDA" H 815 6427 50  0000 C CNN
F 2 "" H 810 6600 50  0001 C CNN
F 3 "" H 810 6600 50  0001 C CNN
	1    810  6600
	1    0    0    -1  
$EndComp
Text Label 810  6500 0    50   ~ 0
LD8
Text Label 820  4390 0    50   ~ 0
LD5
$Comp
L 2020-10-10_19-49-16:CNY74-4H U3
U 1 1 5FB2CAD2
P 3670 3750
F 0 "U3" H 4570 4137 60  0000 C CNN
F 1 "CNY74-4H" H 4570 4031 60  0000 C CNN
F 2 "CNY74:CNY74-4H" H 4570 3990 60  0001 C CNN
F 3 "" H 3670 3750 60  0000 C CNN
	1    3670 3750
	1    0    0    -1  
$EndComp
Wire Wire Line
	3670 3850 3530 3850
Wire Wire Line
	3670 3950 3530 3950
Wire Wire Line
	3670 4250 3530 4250
Wire Wire Line
	3670 4350 3530 4350
Wire Wire Line
	3660 5950 3520 5950
Wire Wire Line
	3660 6050 3520 6050
Wire Wire Line
	3660 6350 3520 6350
Wire Wire Line
	3660 6450 3520 6450
Wire Bus Line
	7740 1400 7740 2260
$EndSCHEMATC
