EESchema Schematic File Version 4
EELAYER 30 0
EELAYER END
$Descr A4 11693 8268
encoding utf-8
Sheet 5 5
Title ""
Date ""
Rev ""
Comp ""
Comment1 ""
Comment2 ""
Comment3 ""
Comment4 ""
$EndDescr
$Comp
L Connector:Screw_Terminal_01x02 J10
U 1 1 5FC76898
P 3820 3030
F 0 "J10" H 3900 3022 50  0000 L CNN
F 1 "Screw_Terminal_01x02" H 3900 2931 50  0000 L CNN
F 2 "TerminalBlock_Phoenix:TerminalBlock_Phoenix_MKDS-1,5-2_1x02_P5.00mm_Horizontal" H 3820 3030 50  0001 C CNN
F 3 "~" H 3820 3030 50  0001 C CNN
	1    3820 3030
	1    0    0    -1  
$EndComp
$Comp
L Connector:Screw_Terminal_01x02 J11
U 1 1 5FC79AE8
P 3820 3640
F 0 "J11" H 3900 3632 50  0000 L CNN
F 1 "Screw_Terminal_01x02" H 3900 3541 50  0000 L CNN
F 2 "TerminalBlock_Phoenix:TerminalBlock_Phoenix_MKDS-1,5-2_1x02_P5.00mm_Horizontal" H 3820 3640 50  0001 C CNN
F 3 "~" H 3820 3640 50  0001 C CNN
	1    3820 3640
	1    0    0    -1  
$EndComp
$Comp
L power:+5V #PWR0106
U 1 1 5FC79ED4
P 2690 3030
F 0 "#PWR0106" H 2690 2880 50  0001 C CNN
F 1 "+5V" H 2705 3203 50  0000 C CNN
F 2 "" H 2690 3030 50  0001 C CNN
F 3 "" H 2690 3030 50  0001 C CNN
	1    2690 3030
	1    0    0    -1  
$EndComp
$Comp
L power:+24V #PWR0107
U 1 1 5FC7A482
P 2690 3640
F 0 "#PWR0107" H 2690 3490 50  0001 C CNN
F 1 "+24V" H 2705 3813 50  0000 C CNN
F 2 "" H 2690 3640 50  0001 C CNN
F 3 "" H 2690 3640 50  0001 C CNN
	1    2690 3640
	1    0    0    -1  
$EndComp
$Comp
L power:GND #PWR0108
U 1 1 5FC7AA93
P 2690 3130
F 0 "#PWR0108" H 2690 2880 50  0001 C CNN
F 1 "GND" H 2695 2957 50  0000 C CNN
F 2 "" H 2690 3130 50  0001 C CNN
F 3 "" H 2690 3130 50  0001 C CNN
	1    2690 3130
	1    0    0    -1  
$EndComp
$Comp
L power:PWR_FLAG #FLG0101
U 1 1 5FC7B4E6
P 3000 3030
F 0 "#FLG0101" H 3000 3105 50  0001 C CNN
F 1 "PWR_FLAG" H 3000 3203 50  0000 C CNN
F 2 "" H 3000 3030 50  0001 C CNN
F 3 "~" H 3000 3030 50  0001 C CNN
	1    3000 3030
	1    0    0    -1  
$EndComp
Connection ~ 3000 3030
Wire Wire Line
	3000 3030 2690 3030
$Comp
L power:PWR_FLAG #FLG0102
U 1 1 5FC7BC0F
P 3010 3640
F 0 "#FLG0102" H 3010 3715 50  0001 C CNN
F 1 "PWR_FLAG" H 3010 3813 50  0000 C CNN
F 2 "" H 3010 3640 50  0001 C CNN
F 3 "~" H 3010 3640 50  0001 C CNN
	1    3010 3640
	1    0    0    -1  
$EndComp
Connection ~ 3010 3640
Wire Wire Line
	3010 3640 2690 3640
Wire Wire Line
	2690 3740 3010 3740
$Comp
L power:PWR_FLAG #FLG0103
U 1 1 5FC95B9E
P 3010 3740
F 0 "#FLG0103" H 3010 3815 50  0001 C CNN
F 1 "PWR_FLAG" H 3010 3913 50  0000 C CNN
F 2 "" H 3010 3740 50  0001 C CNN
F 3 "~" H 3010 3740 50  0001 C CNN
	1    3010 3740
	-1   0    0    1   
$EndComp
Connection ~ 3010 3740
$Comp
L Device:C C14
U 1 1 5FD59F2D
P 5080 2900
F 0 "C14" H 5195 2946 50  0000 L CNN
F 1 "100n" H 5195 2855 50  0000 L CNN
F 2 "Capacitor_THT:C_Disc_D5.1mm_W3.2mm_P5.00mm" H 5118 2750 50  0001 C CNN
F 3 "~" H 5080 2900 50  0001 C CNN
	1    5080 2900
	1    0    0    -1  
$EndComp
$Comp
L Device:C C13
U 1 1 5FD5A98F
P 5050 4180
F 0 "C13" H 5165 4226 50  0000 L CNN
F 1 "100n" H 5165 4135 50  0000 L CNN
F 2 "Capacitor_THT:C_Disc_D5.1mm_W3.2mm_P5.00mm" H 5088 4030 50  0001 C CNN
F 3 "~" H 5050 4180 50  0001 C CNN
	1    5050 4180
	1    0    0    -1  
$EndComp
$Comp
L Device:D_Schottky D17
U 1 1 5FD5BCB8
P 3470 3030
F 0 "D17" H 3470 3246 50  0000 C CNN
F 1 "1N5819" H 3470 3155 50  0000 C CNN
F 2 "Diode_THT:D_DO-41_SOD81_P10.16mm_Horizontal" H 3470 3030 50  0001 C CNN
F 3 "~" H 3470 3030 50  0001 C CNN
	1    3470 3030
	1    0    0    -1  
$EndComp
Wire Wire Line
	3010 3740 3620 3740
Wire Wire Line
	3000 3030 3320 3030
Wire Wire Line
	2690 3130 3000 3130
$Comp
L Device:D_Schottky D18
U 1 1 5FD60A51
P 3470 3640
F 0 "D18" H 3470 3856 50  0000 C CNN
F 1 "1N5819" H 3470 3765 50  0000 C CNN
F 2 "Diode_THT:D_DO-41_SOD81_P10.16mm_Horizontal" H 3470 3640 50  0001 C CNN
F 3 "~" H 3470 3640 50  0001 C CNN
	1    3470 3640
	1    0    0    -1  
$EndComp
Wire Wire Line
	3010 3640 3320 3640
$Comp
L power:+24V #PWR0137
U 1 1 5FD61380
P 5050 4030
F 0 "#PWR0137" H 5050 3880 50  0001 C CNN
F 1 "+24V" H 5065 4203 50  0000 C CNN
F 2 "" H 5050 4030 50  0001 C CNN
F 3 "" H 5050 4030 50  0001 C CNN
	1    5050 4030
	1    0    0    -1  
$EndComp
$Comp
L power:+5V #PWR0138
U 1 1 5FD61D9E
P 5080 2750
F 0 "#PWR0138" H 5080 2600 50  0001 C CNN
F 1 "+5V" H 5095 2923 50  0000 C CNN
F 2 "" H 5080 2750 50  0001 C CNN
F 3 "" H 5080 2750 50  0001 C CNN
	1    5080 2750
	1    0    0    -1  
$EndComp
$Comp
L power:GND #PWR0139
U 1 1 5FD64E15
P 5080 3050
F 0 "#PWR0139" H 5080 2800 50  0001 C CNN
F 1 "GND" H 5085 2877 50  0000 C CNN
F 2 "" H 5080 3050 50  0001 C CNN
F 3 "" H 5080 3050 50  0001 C CNN
	1    5080 3050
	1    0    0    -1  
$EndComp
$Comp
L Device:LED D20
U 1 1 5FD65667
P 5770 3260
F 0 "D20" V 5809 3143 50  0000 R CNN
F 1 "LED" V 5718 3143 50  0000 R CNN
F 2 "LED_THT:LED_D5.0mm" H 5770 3260 50  0001 C CNN
F 3 "~" H 5770 3260 50  0001 C CNN
	1    5770 3260
	0    -1   -1   0   
$EndComp
$Comp
L Device:R R35
U 1 1 5FD66A5D
P 5770 2890
F 0 "R35" H 5840 2936 50  0000 L CNN
F 1 "330" H 5840 2845 50  0000 L CNN
F 2 "Resistor_THT:R_Axial_DIN0204_L3.6mm_D1.6mm_P2.54mm_Vertical" V 5700 2890 50  0001 C CNN
F 3 "~" H 5770 2890 50  0001 C CNN
	1    5770 2890
	1    0    0    -1  
$EndComp
$Comp
L power:GNDA #PWR0140
U 1 1 5FD678F2
P 5050 4330
F 0 "#PWR0140" H 5050 4080 50  0001 C CNN
F 1 "GNDA" H 5055 4157 50  0000 C CNN
F 2 "" H 5050 4330 50  0001 C CNN
F 3 "" H 5050 4330 50  0001 C CNN
	1    5050 4330
	1    0    0    -1  
$EndComp
$Comp
L power:GNDA #PWR0141
U 1 1 5FD67E64
P 2690 3740
F 0 "#PWR0141" H 2690 3490 50  0001 C CNN
F 1 "GNDA" H 2695 3567 50  0000 C CNN
F 2 "" H 2690 3740 50  0001 C CNN
F 3 "" H 2690 3740 50  0001 C CNN
	1    2690 3740
	1    0    0    -1  
$EndComp
Wire Wire Line
	5770 3040 5770 3110
$Comp
L Device:LED D19
U 1 1 5FD699AA
P 5760 4430
F 0 "D19" V 5799 4313 50  0000 R CNN
F 1 "LED" V 5708 4313 50  0000 R CNN
F 2 "LED_THT:LED_D5.0mm" H 5760 4430 50  0001 C CNN
F 3 "~" H 5760 4430 50  0001 C CNN
	1    5760 4430
	0    -1   -1   0   
$EndComp
$Comp
L Device:R R34
U 1 1 5FD699B0
P 5760 4060
F 0 "R34" H 5830 4106 50  0000 L CNN
F 1 "2K7" H 5830 4015 50  0000 L CNN
F 2 "Resistor_THT:R_Axial_DIN0204_L3.6mm_D1.6mm_P2.54mm_Vertical" V 5690 4060 50  0001 C CNN
F 3 "~" H 5760 4060 50  0001 C CNN
	1    5760 4060
	1    0    0    -1  
$EndComp
Wire Wire Line
	5760 4210 5760 4280
$Comp
L power:+5V #PWR0142
U 1 1 5FD69A8E
P 5770 2740
F 0 "#PWR0142" H 5770 2590 50  0001 C CNN
F 1 "+5V" H 5785 2913 50  0000 C CNN
F 2 "" H 5770 2740 50  0001 C CNN
F 3 "" H 5770 2740 50  0001 C CNN
	1    5770 2740
	1    0    0    -1  
$EndComp
$Comp
L power:GND #PWR0143
U 1 1 5FD6B7FE
P 5770 3410
F 0 "#PWR0143" H 5770 3160 50  0001 C CNN
F 1 "GND" H 5775 3237 50  0000 C CNN
F 2 "" H 5770 3410 50  0001 C CNN
F 3 "" H 5770 3410 50  0001 C CNN
	1    5770 3410
	1    0    0    -1  
$EndComp
$Comp
L power:+24V #PWR0144
U 1 1 5FD6C05B
P 5760 3910
F 0 "#PWR0144" H 5760 3760 50  0001 C CNN
F 1 "+24V" H 5775 4083 50  0000 C CNN
F 2 "" H 5760 3910 50  0001 C CNN
F 3 "" H 5760 3910 50  0001 C CNN
	1    5760 3910
	1    0    0    -1  
$EndComp
$Comp
L power:GNDA #PWR0145
U 1 1 5FD6D5ED
P 5760 4580
F 0 "#PWR0145" H 5760 4330 50  0001 C CNN
F 1 "GNDA" H 5765 4407 50  0000 C CNN
F 2 "" H 5760 4580 50  0001 C CNN
F 3 "" H 5760 4580 50  0001 C CNN
	1    5760 4580
	1    0    0    -1  
$EndComp
$Comp
L power:PWR_FLAG #FLG0104
U 1 1 5FE9DC84
P 3000 3130
F 0 "#FLG0104" H 3000 3205 50  0001 C CNN
F 1 "PWR_FLAG" H 3000 3303 50  0000 C CNN
F 2 "" H 3000 3130 50  0001 C CNN
F 3 "~" H 3000 3130 50  0001 C CNN
	1    3000 3130
	-1   0    0    1   
$EndComp
Connection ~ 3000 3130
Wire Wire Line
	3000 3130 3620 3130
$Comp
L Device:D_Zener D21
U 1 1 600BB080
P 6320 2970
F 0 "D21" V 6274 3049 50  0000 L CNN
F 1 "Zener5V1" V 6365 3049 50  0000 L CNN
F 2 "Diode_THT:D_DO-15_P10.16mm_Horizontal" H 6320 2970 50  0001 C CNN
F 3 "~" H 6320 2970 50  0001 C CNN
	1    6320 2970
	0    1    1    0   
$EndComp
$Comp
L power:GND #PWR037
U 1 1 600BC612
P 6320 3120
F 0 "#PWR037" H 6320 2870 50  0001 C CNN
F 1 "GND" H 6325 2947 50  0000 C CNN
F 2 "" H 6320 3120 50  0001 C CNN
F 3 "" H 6320 3120 50  0001 C CNN
	1    6320 3120
	1    0    0    -1  
$EndComp
$Comp
L power:+5V #PWR036
U 1 1 600BCEC0
P 6320 2820
F 0 "#PWR036" H 6320 2670 50  0001 C CNN
F 1 "+5V" H 6335 2993 50  0000 C CNN
F 2 "" H 6320 2820 50  0001 C CNN
F 3 "" H 6320 2820 50  0001 C CNN
	1    6320 2820
	1    0    0    -1  
$EndComp
$EndSCHEMATC
