"Source:","C:\Users\Djole\Desktop\PLC\PLC\PLC.sch"
"Date:","10/12/2020 2:44:30 PM"
"Tool:","Eeschema (5.1.5)-3"
"Generator:","C:\Program Files\KiCad\bin\scripting\plugins/bom_csv_grouped_by_value.py"
"Component Count:","118"

"Individual Components:"

"Item","Qty","Reference(s)","Value","LibPart","Footprint","Datasheet"
"","","C1","100n","Device:C","Capacitor_THT:C_Disc_D5.1mm_W3.2mm_P5.00mm","~"
"","","C2","100u","Device:CP","Capacitor_THT:CP_Radial_D7.5mm_P2.50mm","~"
"","","C4","100n","Device:C","Capacitor_THT:C_Disc_D5.1mm_W3.2mm_P5.00mm","~"
"","","C5","100n","Device:C","Capacitor_THT:C_Disc_D5.1mm_W3.2mm_P5.00mm","~"
"","","C6","100n","Device:C","Capacitor_THT:C_Disc_D5.1mm_W3.2mm_P5.00mm","~"
"","","C7","100n","Device:C","Capacitor_THT:C_Disc_D5.1mm_W3.2mm_P5.00mm","~"
"","","C8","100n","Device:C","Capacitor_THT:C_Disc_D5.1mm_W3.2mm_P5.00mm","~"
"","","C9","100n","Device:C","Capacitor_THT:C_Disc_D5.1mm_W3.2mm_P5.00mm","~"
"","","C10","100n","Device:C","Capacitor_THT:C_Disc_D5.1mm_W3.2mm_P5.00mm","~"
"","","C11","100n","Device:C","Capacitor_THT:C_Disc_D5.1mm_W3.2mm_P5.00mm","~"
"","","C12","100n","Device:C","Capacitor_THT:C_Disc_D5.1mm_W3.2mm_P5.00mm","~"
"","","C13","100n","Device:C","Capacitor_THT:C_Disc_D5.1mm_W3.2mm_P5.00mm","~"
"","","C14","100n","Device:C","Capacitor_THT:C_Disc_D5.1mm_W3.2mm_P5.00mm","~"
"","","D1","LED","Device:LED","LED_THT:LED_D5.0mm","~"
"","","D2","LED","Device:LED","LED_THT:LED_D5.0mm","~"
"","","D3","LED","Device:LED","LED_THT:LED_D5.0mm","~"
"","","D4","LED","Device:LED","LED_THT:LED_D5.0mm","~"
"","","D5","LED","Device:LED","LED_THT:LED_D5.0mm","~"
"","","D6","LED","Device:LED","LED_THT:LED_D5.0mm","~"
"","","D7","LED","Device:LED","LED_THT:LED_D5.0mm","~"
"","","D8","LED","Device:LED","LED_THT:LED_D5.0mm","~"
"","","D9","LED","Device:LED","LED_THT:LED_D5.0mm","~"
"","","D10","LED","Device:LED","LED_THT:LED_D5.0mm","~"
"","","D11","LED","Device:LED","LED_THT:LED_D5.0mm","~"
"","","D12","LED","Device:LED","LED_THT:LED_D5.0mm","~"
"","","D13","LED","Device:LED","LED_THT:LED_D5.0mm","~"
"","","D14","LED","Device:LED","LED_THT:LED_D5.0mm","~"
"","","D15","LED","Device:LED","LED_THT:LED_D5.0mm","~"
"","","D16","LED","Device:LED","LED_THT:LED_D5.0mm","~"
"","","D17","1N5819","Device:D_Schottky","Diode_THT:D_DO-41_SOD81_P10.16mm_Horizontal","~"
"","","D18","1N5819","Device:D_Schottky","Diode_THT:D_DO-41_SOD81_P10.16mm_Horizontal","~"
"","","D19","LED","Device:LED","LED_THT:LED_D5.0mm","~"
"","","D20","LED","Device:LED","LED_THT:LED_D5.0mm","~"
"","","D21","Zener5V1","Device:D_Zener","Diode_THT:D_DO-15_P10.16mm_Horizontal","~"
"","","D22","1N4001","Device:D","Diode_THT:D_A-405_P2.54mm_Vertical_AnodeUp","~"
"","","D23","1N4001","Device:D","Diode_THT:D_A-405_P2.54mm_Vertical_AnodeUp","~"
"","","D24","1N4001","Device:D","Diode_THT:D_A-405_P2.54mm_Vertical_AnodeUp","~"
"","","D25","1N4001","Device:D","Diode_THT:D_A-405_P2.54mm_Vertical_AnodeUp","~"
"","","H1","MountingHole","Mechanical:MountingHole","MountingHole:MountingHole_2.2mm_M2","~"
"","","H2","MountingHole","Mechanical:MountingHole","MountingHole:MountingHole_2.2mm_M2","~"
"","","H3","MountingHole","Mechanical:MountingHole","MountingHole:MountingHole_2.2mm_M2","~"
"","","H4","MountingHole","Mechanical:MountingHole","MountingHole:MountingHole_2.2mm_M2","~"
"","","IN1","Screw_Terminal_01x03","Connector:Screw_Terminal_01x03","TerminalBlock_Phoenix:TerminalBlock_Phoenix_MKDS-3-3-5.08_1x03_P5.08mm_Horizontal","~"
"","","IN2","Screw_Terminal_01x03","Connector:Screw_Terminal_01x03","TerminalBlock_Phoenix:TerminalBlock_Phoenix_MKDS-3-3-5.08_1x03_P5.08mm_Horizontal","~"
"","","IN3","Screw_Terminal_01x03","Connector:Screw_Terminal_01x03","TerminalBlock_Phoenix:TerminalBlock_Phoenix_MKDS-3-3-5.08_1x03_P5.08mm_Horizontal","~"
"","","IN4","Screw_Terminal_01x03","Connector:Screw_Terminal_01x03","TerminalBlock_Phoenix:TerminalBlock_Phoenix_MKDS-3-3-5.08_1x03_P5.08mm_Horizontal","~"
"","","IN5","Screw_Terminal_01x03","Connector:Screw_Terminal_01x03","TerminalBlock_Phoenix:TerminalBlock_Phoenix_MKDS-3-3-5.08_1x03_P5.08mm_Horizontal","~"
"","","IN6","Screw_Terminal_01x03","Connector:Screw_Terminal_01x03","TerminalBlock_Phoenix:TerminalBlock_Phoenix_MKDS-3-3-5.08_1x03_P5.08mm_Horizontal","~"
"","","IN7","Screw_Terminal_01x03","Connector:Screw_Terminal_01x03","TerminalBlock_Phoenix:TerminalBlock_Phoenix_MKDS-3-3-5.08_1x03_P5.08mm_Horizontal","~"
"","","IN8","Screw_Terminal_01x03","Connector:Screw_Terminal_01x03","TerminalBlock_Phoenix:TerminalBlock_Phoenix_MKDS-3-3-5.08_1x03_P5.08mm_Horizontal","~"
"","","J1","Conn_01x05_Male","Connector:Conn_01x05_Male","Connector_PinHeader_2.54mm:PinHeader_1x05_P2.54mm_Vertical","~"
"","","J2","Conn_01x03_Male","Connector:Conn_01x03_Male","Connector_PinHeader_2.54mm:PinHeader_1x03_P2.54mm_Vertical","~"
"","","J3","Conn_01x04_Male","Connector:Conn_01x04_Male","Connector_PinHeader_2.54mm:PinHeader_1x04_P2.54mm_Vertical","~"
"","","J4","Screw_Terminal_01x04","Connector:Screw_Terminal_01x04","TerminalBlock_Phoenix:TerminalBlock_Phoenix_MKDS-3-4-5.08_1x04_P5.08mm_Horizontal","~"
"","","J9","PICKIT","Connector:Conn_01x06_Male","Connector_PinHeader_2.54mm:PinHeader_1x06_P2.54mm_Vertical","~"
"","","J10","Screw_Terminal_01x02","Connector:Screw_Terminal_01x02","TerminalBlock_Phoenix:TerminalBlock_Phoenix_MKDS-1,5-2_1x02_P5.00mm_Horizontal","~"
"","","J11","Screw_Terminal_01x02","Connector:Screw_Terminal_01x02","TerminalBlock_Phoenix:TerminalBlock_Phoenix_MKDS-1,5-2_1x02_P5.00mm_Horizontal","~"
"","","K1","G5V-1","Relay:G5V-1","Relay_THT:Relay_SPDT_Omron_G5V-1","http://omronfs.omron.com/en_US/ecb/products/pdf/en-g5v_1.pdf"
"","","K2","G5V-1","Relay:G5V-1","Relay_THT:Relay_SPDT_Omron_G5V-1","http://omronfs.omron.com/en_US/ecb/products/pdf/en-g5v_1.pdf"
"","","K3","G5V-1","Relay:G5V-1","Relay_THT:Relay_SPDT_Omron_G5V-1","http://omronfs.omron.com/en_US/ecb/products/pdf/en-g5v_1.pdf"
"","","K4","G5V-1","Relay:G5V-1","Relay_THT:Relay_SPDT_Omron_G5V-1","http://omronfs.omron.com/en_US/ecb/products/pdf/en-g5v_1.pdf"
"","","K5","G5V-1","Relay:G5V-1","Relay_THT:Relay_SPDT_Omron_G5V-1","http://omronfs.omron.com/en_US/ecb/products/pdf/en-g5v_1.pdf"
"","","K6","G5V-1","Relay:G5V-1","Relay_THT:Relay_SPDT_Omron_G5V-1","http://omronfs.omron.com/en_US/ecb/products/pdf/en-g5v_1.pdf"
"","","K7","G5V-1","Relay:G5V-1","Relay_THT:Relay_SPDT_Omron_G5V-1","http://omronfs.omron.com/en_US/ecb/products/pdf/en-g5v_1.pdf"
"","","K8","G5V-1","Relay:G5V-1","Relay_THT:Relay_SPDT_Omron_G5V-1","http://omronfs.omron.com/en_US/ecb/products/pdf/en-g5v_1.pdf"
"","","OUT1","Screw_Terminal_01x03","Connector:Screw_Terminal_01x03","TerminalBlock_Phoenix:TerminalBlock_Phoenix_MKDS-3-3-5.08_1x03_P5.08mm_Horizontal","~"
"","","OUT2","Screw_Terminal_01x03","Connector:Screw_Terminal_01x03","TerminalBlock_Phoenix:TerminalBlock_Phoenix_MKDS-3-3-5.08_1x03_P5.08mm_Horizontal","~"
"","","OUT3","Screw_Terminal_01x03","Connector:Screw_Terminal_01x03","TerminalBlock_Phoenix:TerminalBlock_Phoenix_MKDS-3-3-5.08_1x03_P5.08mm_Horizontal","~"
"","","OUT4","Screw_Terminal_01x03","Connector:Screw_Terminal_01x03","TerminalBlock_Phoenix:TerminalBlock_Phoenix_MKDS-3-3-5.08_1x03_P5.08mm_Horizontal","~"
"","","OUT5","Screw_Terminal_01x03","Connector:Screw_Terminal_01x03","TerminalBlock_Phoenix:TerminalBlock_Phoenix_MKDS-3-3-5.08_1x03_P5.08mm_Horizontal","~"
"","","OUT6","Screw_Terminal_01x03","Connector:Screw_Terminal_01x03","TerminalBlock_Phoenix:TerminalBlock_Phoenix_MKDS-3-3-5.08_1x03_P5.08mm_Horizontal","~"
"","","OUT7","Screw_Terminal_01x03","Connector:Screw_Terminal_01x03","TerminalBlock_Phoenix:TerminalBlock_Phoenix_MKDS-3-3-5.08_1x03_P5.08mm_Horizontal","~"
"","","OUT8","Screw_Terminal_01x03","Connector:Screw_Terminal_01x03","TerminalBlock_Phoenix:TerminalBlock_Phoenix_MKDS-3-3-5.08_1x03_P5.08mm_Horizontal","~"
"","","R1","330R","Device:R","Resistor_THT:R_Axial_DIN0204_L3.6mm_D1.6mm_P2.54mm_Vertical","~"
"","","R2","330R","Device:R","Resistor_THT:R_Axial_DIN0204_L3.6mm_D1.6mm_P2.54mm_Vertical","~"
"","","R3","330R","Device:R","Resistor_THT:R_Axial_DIN0204_L3.6mm_D1.6mm_P2.54mm_Vertical","~"
"","","R4","330R","Device:R","Resistor_THT:R_Axial_DIN0204_L3.6mm_D1.6mm_P2.54mm_Vertical","~"
"","","R5","330R","Device:R","Resistor_THT:R_Axial_DIN0204_L3.6mm_D1.6mm_P2.54mm_Vertical","~"
"","","R6","330R","Device:R","Resistor_THT:R_Axial_DIN0204_L3.6mm_D1.6mm_P2.54mm_Vertical","~"
"","","R7","330R","Device:R","Resistor_THT:R_Axial_DIN0204_L3.6mm_D1.6mm_P2.54mm_Vertical","~"
"","","R8","330R","Device:R","Resistor_THT:R_Axial_DIN0204_L3.6mm_D1.6mm_P2.54mm_Vertical","~"
"","","R9","4k7","Device:R","Resistor_THT:R_Axial_DIN0204_L3.6mm_D1.6mm_P2.54mm_Vertical","~"
"","","R10","1K","Device:R","Resistor_THT:R_Axial_DIN0204_L3.6mm_D1.6mm_P2.54mm_Vertical","~"
"","","R11","1K","Device:R","Resistor_THT:R_Axial_DIN0204_L3.6mm_D1.6mm_P2.54mm_Vertical","~"
"","","R12","1K","Device:R","Resistor_THT:R_Axial_DIN0204_L3.6mm_D1.6mm_P2.54mm_Vertical","~"
"","","R13","1K","Device:R","Resistor_THT:R_Axial_DIN0204_L3.6mm_D1.6mm_P2.54mm_Vertical","~"
"","","R14","1K","Device:R","Resistor_THT:R_Axial_DIN0204_L3.6mm_D1.6mm_P2.54mm_Vertical","~"
"","","R15","1K","Device:R","Resistor_THT:R_Axial_DIN0204_L3.6mm_D1.6mm_P2.54mm_Vertical","~"
"","","R16","1K","Device:R","Resistor_THT:R_Axial_DIN0204_L3.6mm_D1.6mm_P2.54mm_Vertical","~"
"","","R17","1K","Device:R","Resistor_THT:R_Axial_DIN0204_L3.6mm_D1.6mm_P2.54mm_Vertical","~"
"","","R18","1K","Device:R","Resistor_THT:R_Axial_DIN0204_L3.6mm_D1.6mm_P2.54mm_Vertical","~"
"","","R19","1K","Device:R","Resistor_THT:R_Axial_DIN0204_L3.6mm_D1.6mm_P2.54mm_Vertical","~"
"","","R20","1K","Device:R","Resistor_THT:R_Axial_DIN0204_L3.6mm_D1.6mm_P2.54mm_Vertical","~"
"","","R21","1K","Device:R","Resistor_THT:R_Axial_DIN0204_L3.6mm_D1.6mm_P2.54mm_Vertical","~"
"","","R22","1K","Device:R","Resistor_THT:R_Axial_DIN0204_L3.6mm_D1.6mm_P2.54mm_Vertical","~"
"","","R23","1K","Device:R","Resistor_THT:R_Axial_DIN0204_L3.6mm_D1.6mm_P2.54mm_Vertical","~"
"","","R24","1K","Device:R","Resistor_THT:R_Axial_DIN0204_L3.6mm_D1.6mm_P2.54mm_Vertical","~"
"","","R25","1K","Device:R","Resistor_THT:R_Axial_DIN0204_L3.6mm_D1.6mm_P2.54mm_Vertical","~"
"","","R26","2K5","Device:R","Resistor_THT:R_Axial_DIN0204_L3.6mm_D1.6mm_P2.54mm_Vertical","~"
"","","R27","2K5","Device:R","Resistor_THT:R_Axial_DIN0204_L3.6mm_D1.6mm_P2.54mm_Vertical","~"
"","","R28","2K5","Device:R","Resistor_THT:R_Axial_DIN0204_L3.6mm_D1.6mm_P2.54mm_Vertical","~"
"","","R29","2K5","Device:R","Resistor_THT:R_Axial_DIN0204_L3.6mm_D1.6mm_P2.54mm_Vertical","~"
"","","R30","2K5","Device:R","Resistor_THT:R_Axial_DIN0204_L3.6mm_D1.6mm_P2.54mm_Vertical","~"
"","","R31","2K5","Device:R","Resistor_THT:R_Axial_DIN0204_L3.6mm_D1.6mm_P2.54mm_Vertical","~"
"","","R32","2K5","Device:R","Resistor_THT:R_Axial_DIN0204_L3.6mm_D1.6mm_P2.54mm_Vertical","~"
"","","R33","2K5","Device:R","Resistor_THT:R_Axial_DIN0204_L3.6mm_D1.6mm_P2.54mm_Vertical","~"
"","","R34","2K7","Device:R","Resistor_THT:R_Axial_DIN0204_L3.6mm_D1.6mm_P2.54mm_Vertical","~"
"","","R35","330","Device:R","Resistor_THT:R_Axial_DIN0204_L3.6mm_D1.6mm_P2.54mm_Vertical","~"
"","","R36","4K7","Device:R","Resistor_THT:R_Axial_DIN0204_L3.6mm_D1.6mm_P2.54mm_Vertical","~"
"","","R37","4K7","Device:R","Resistor_THT:R_Axial_DIN0204_L3.6mm_D1.6mm_P2.54mm_Vertical","~"
"","","R38","100","Device:R","Resistor_THT:R_Axial_DIN0204_L3.6mm_D1.6mm_P2.54mm_Vertical","~"
"","","R39","100","Device:R","Resistor_THT:R_Axial_DIN0204_L3.6mm_D1.6mm_P2.54mm_Vertical","~"
"","","SW1","SW_Push","Switch:SW_Push","Button_Switch_THT:SW_PUSH_6mm_H5mm","~"
"","","U1","ULN2803A","Transistor_Array:ULN2803A","Package_DIP:DIP-18_W7.62mm","http://www.ti.com/lit/ds/symlink/uln2803a.pdf"
"","","U2","PIC16F887-IP","MCU_Microchip_PIC16:PIC16F887-IP","Package_DIP:DIP-40_W15.24mm","http://ww1.microchip.com/downloads/en/DeviceDoc/41291D.pdf"
"","","U3","CNY74-4H","2020-10-10_19-49-16:CNY74-4H","CNY74:CNY74-4H",""
"","","U4","CNY74-4H","2020-10-10_19-49-16:CNY74-4H","CNY74:CNY74-4H",""
"","","U5","74HCT541","74xx:74HCT541","Package_DIP:DIP-20_W7.62mm","http://www.ti.com/lit/gpn/sn74HCT541"



"Collated Components:"

"Item","Qty","Reference(s)","Value","LibPart","Footprint","Datasheet"
"1","12","C1, C4, C5, C6, C7, C8, C9, C10, C11, C12, C13, C14","100n","Device:C","Capacitor_THT:C_Disc_D5.1mm_W3.2mm_P5.00mm","~"
"2","1","C2","100u","Device:CP","Capacitor_THT:CP_Radial_D7.5mm_P2.50mm","~"
"3","18","D1, D2, D3, D4, D5, D6, D7, D8, D9, D10, D11, D12, D13, D14, D15, D16, D19, D20","LED","Device:LED","LED_THT:LED_D5.0mm","~"
"4","2","D17, D18","1N5819","Device:D_Schottky","Diode_THT:D_DO-41_SOD81_P10.16mm_Horizontal","~"
"5","1","D21","Zener5V1","Device:D_Zener","Diode_THT:D_DO-15_P10.16mm_Horizontal","~"
"6","4","D22, D23, D24, D25","1N4001","Device:D","Diode_THT:D_A-405_P2.54mm_Vertical_AnodeUp","~"
"7","4","H1, H2, H3, H4","MountingHole","Mechanical:MountingHole","MountingHole:MountingHole_2.2mm_M2","~"
"8","16","IN1, IN2, IN3, IN4, IN5, IN6, IN7, IN8, OUT1, OUT2, OUT3, OUT4, OUT5, OUT6, OUT7, OUT8","Screw_Terminal_01x03","Connector:Screw_Terminal_01x03","TerminalBlock_Phoenix:TerminalBlock_Phoenix_MKDS-3-3-5.08_1x03_P5.08mm_Horizontal","~"
"9","1","J1","Conn_01x05_Male","Connector:Conn_01x05_Male","Connector_PinHeader_2.54mm:PinHeader_1x05_P2.54mm_Vertical","~"
"10","1","J2","Conn_01x03_Male","Connector:Conn_01x03_Male","Connector_PinHeader_2.54mm:PinHeader_1x03_P2.54mm_Vertical","~"
"11","1","J3","Conn_01x04_Male","Connector:Conn_01x04_Male","Connector_PinHeader_2.54mm:PinHeader_1x04_P2.54mm_Vertical","~"
"12","1","J4","Screw_Terminal_01x04","Connector:Screw_Terminal_01x04","TerminalBlock_Phoenix:TerminalBlock_Phoenix_MKDS-3-4-5.08_1x04_P5.08mm_Horizontal","~"
"13","1","J9","PICKIT","Connector:Conn_01x06_Male","Connector_PinHeader_2.54mm:PinHeader_1x06_P2.54mm_Vertical","~"
"14","2","J10, J11","Screw_Terminal_01x02","Connector:Screw_Terminal_01x02","TerminalBlock_Phoenix:TerminalBlock_Phoenix_MKDS-1,5-2_1x02_P5.00mm_Horizontal","~"
"15","8","K1, K2, K3, K4, K5, K6, K7, K8","G5V-1","Relay:G5V-1","Relay_THT:Relay_SPDT_Omron_G5V-1","http://omronfs.omron.com/en_US/ecb/products/pdf/en-g5v_1.pdf"
"16","8","R1, R2, R3, R4, R5, R6, R7, R8","330R","Device:R","Resistor_THT:R_Axial_DIN0204_L3.6mm_D1.6mm_P2.54mm_Vertical","~"
"17","1","R9","4k7","Device:R","Resistor_THT:R_Axial_DIN0204_L3.6mm_D1.6mm_P2.54mm_Vertical","~"
"18","16","R10, R11, R12, R13, R14, R15, R16, R17, R18, R19, R20, R21, R22, R23, R24, R25","1K","Device:R","Resistor_THT:R_Axial_DIN0204_L3.6mm_D1.6mm_P2.54mm_Vertical","~"
"19","8","R26, R27, R28, R29, R30, R31, R32, R33","2K5","Device:R","Resistor_THT:R_Axial_DIN0204_L3.6mm_D1.6mm_P2.54mm_Vertical","~"
"20","1","R34","2K7","Device:R","Resistor_THT:R_Axial_DIN0204_L3.6mm_D1.6mm_P2.54mm_Vertical","~"
"21","1","R35","330","Device:R","Resistor_THT:R_Axial_DIN0204_L3.6mm_D1.6mm_P2.54mm_Vertical","~"
"22","2","R36, R37","4K7","Device:R","Resistor_THT:R_Axial_DIN0204_L3.6mm_D1.6mm_P2.54mm_Vertical","~"
"23","2","R38, R39","100","Device:R","Resistor_THT:R_Axial_DIN0204_L3.6mm_D1.6mm_P2.54mm_Vertical","~"
"24","1","SW1","SW_Push","Switch:SW_Push","Button_Switch_THT:SW_PUSH_6mm_H5mm","~"
"25","1","U1","ULN2803A","Transistor_Array:ULN2803A","Package_DIP:DIP-18_W7.62mm","http://www.ti.com/lit/ds/symlink/uln2803a.pdf"
"26","1","U2","PIC16F887-IP","MCU_Microchip_PIC16:PIC16F887-IP","Package_DIP:DIP-40_W15.24mm","http://ww1.microchip.com/downloads/en/DeviceDoc/41291D.pdf"
"27","2","U3, U4","CNY74-4H","2020-10-10_19-49-16:CNY74-4H","CNY74:CNY74-4H",""
"28","1","U5","74HCT541","74xx:74HCT541","Package_DIP:DIP-20_W7.62mm","http://www.ti.com/lit/gpn/sn74HCT541"
